{
    "name": "Playes Controls",
    "maps": [
        {
            "name": "Player Movement",
            "id": "09670488-f9dc-4290-baa2-1df1abdf7a57",
            "actions": [
                {
                    "name": "Movement",
                    "type": "PassThrough",
                    "id": "3511daae-1dca-4c84-a60e-c5fcf3237b45",
                    "expectedControlType": "Vector2",
                    "processors": "",
                    "interactions": ""
                },
                {
                    "name": "Camera",
                    "type": "PassThrough",
                    "id": "d97570d8-462d-4c41-9380-0851bd91b9ef",
                    "expectedControlType": "Vector2",
                    "processors": "",
                    "interactions": ""
                }
            ],
            "bindings": [
                {
                    "name": "WASD",
                    "id": "06b8fade-a577-4d1b-a073-a26b5ff04412",
                    "path": "2DVector(mode=2)",
                    "interactions": "",
                    "processors": "",
                    "groups": "",
                    "action": "Movement",
                    "isComposite": true,
                    "isPartOfComposite": false
                },
                {
                    "name": "up",
                    "id": "6cf66a22-0c0b-4b7f-bbcc-2ed878440cf1",
                    "path": "<Keyboard>/w",
                    "interactions": "",
                    "processors": "",
                    "groups": "",
                    "action": "Movement",
                    "isComposite": false,
                    "isPartOfComposite": true
                },
                {
                    "name": "down",
                    "id": "8f1e9b6a-04d9-41a4-8e3f-893b8fc9c020",
                    "path": "<Keyboard>/s",
                    "interactions": "",
                    "processors": "",
                    "groups": "",
                    "action": "Movement",
                    "isComposite": false,
                    "isPartOfComposite": true
                },
                {
                    "name": "left",
                    "id": "d22f8eb1-048d-47b6-8e26-cae2f480ff1e",
                    "path": "<Keyboard>/a",
                    "interactions": "",
                    "processors": "",
                    "groups": "",
                    "action": "Movement",
                    "isComposite": false,
                    "isPartOfComposite": true
                },
                {
                    "name": "right",
                    "id": "80d98fea-a7b7-458c-a8c4-c882259d2851",
                    "path": "<Keyboard>/d",
                    "interactions": "",
                    "processors": "",
                    "groups": "",
                    "action": "Movement",
                    "isComposite": false,
                    "isPartOfComposite": true
                },
                {
                    "name": "",
                    "id": "51d08f61-146f-4677-98fa-298a7bcf4f1b",
                    "path": "<Gamepad>/rightStick",
                    "interactions": "",
                    "processors": "AxisDeadzone",
                    "groups": "",
                    "action": "Camera",
                    "isComposite": false,
                    "isPartOfComposite": false
                },
                {
                    "name": "",
                    "id": "cedbac5c-46a8-4ca4-a8ef-fff582536cd1",
                    "path": "<Mouse>/delta",
                    "interactions": "",
                    "processors": "NormalizeVector2",
                    "groups": "",
                    "action": "Camera",
                    "isComposite": false,
                    "isPartOfComposite": false
                }
            ]
        },
        {
            "name": "Player Actions",
            "id": "fd8e0313-1398-47b1-8d48-91735292f4f7",
            "actions": [
                {
                    "name": "Roll",
                    "type": "Button",
                    "id": "0abef181-eff2-4125-82b6-5de318ebdfc4",
                    "expectedControlType": "Button",
                    "processors": "",
                    "interactions": ""
                },
                {
                    "name": "RB",
                    "type": "Button",
                    "id": "54906446-57c7-42b6-8a4c-1d25419940cd",
                    "expectedControlType": "Button",
                    "processors": "",
                    "interactions": ""
                },
                {
                    "name": "RT",
                    "type": "Button",
                    "id": "5a667671-c5d2-46b8-9b0c-679c2fe9bf7f",
                    "expectedControlType": "Button",
                    "processors": "",
                    "interactions": ""
                }
            ],
            "bindings": [
                {
                    "name": "",
                    "id": "d7c167bf-73f3-4127-a4d4-eed2d574588e",
                    "path": "<Gamepad>/buttonEast",
                    "interactions": "",
                    "processors": "",
                    "groups": "",
                    "action": "Roll",
                    "isComposite": false,
                    "isPartOfComposite": false
                },
                {
                    "name": "",
                    "id": "ea5b3fd3-3a6a-47df-939d-e531af65d13d",
                    "path": "<Keyboard>/leftShift",
                    "interactions": "",
                    "processors": "",
                    "groups": "",
                    "action": "Roll",
                    "isComposite": false,
                    "isPartOfComposite": false
                },
                {
                    "name": "",
                    "id": "00fbc157-9f62-4fa7-a795-a738aaa38948",
                    "path": "<Keyboard>/e",
                    "interactions": "",
                    "processors": "",
                    "groups": "",
                    "action": "RB",
                    "isComposite": false,
                    "isPartOfComposite": false
                },
                {
                    "name": "",
                    "id": "6de3f600-4b28-4f55-a8aa-9409da7c5093",
                    "path": "<Keyboard>/r",
                    "interactions": "",
                    "processors": "",
                    "groups": "",
                    "action": "RT",
                    "isComposite": false,
                    "isPartOfComposite": false
                }
            ]
        }
    ],
    "controlSchemes": []
}